%YAML 1.1
%TAG !u! tag:unity3d.com,2011:
--- !u!114 &11400000
MonoBehaviour:
  m_ObjectHideFlags: 0
  m_CorrespondingSourceObject: {fileID: 0}
  m_PrefabInstance: {fileID: 0}
  m_PrefabAsset: {fileID: 0}
  m_GameObject: {fileID: 0}
  m_Enabled: 1
  m_EditorHideFlags: 0
  m_Script: {fileID: 11500000, guid: 19f279aded72cb741b4de89a54359dd4, type: 3}
  m_Name: AGL_MixedRealitySpatialAwarenessSystemProfile
  m_EditorClassIdentifier: 
  isCustomProfile: 1
  observerConfigurations:
  - componentType:
      reference: Microsoft.MixedReality.Toolkit.WindowsMixedReality.SpatialAwareness.WindowsMixedRealitySpatialMeshObserver,
        Microsoft.MixedReality.Toolkit.Providers.WindowsMixedReality
    componentName: Windows Mixed Reality Spatial Mesh Observer
    priority: 0
    runtimePlatform: 8
    observerProfile: {fileID: 11400000, guid: 8be0bcd2117dd214da41ed98f0def2e3, type: 2}
  - componentType:
      reference: Microsoft.MixedReality.Toolkit.SpatialObjectMeshObserver.SpatialObjectMeshObserver,
        Microsoft.MixedReality.Toolkit.Providers.ObjectMeshObserver
    componentName: Spatial Object Mesh Observer
    priority: 0
    runtimePlatform: 208
    observerProfile: {fileID: 11400000, guid: 60e57a38f0e2d434d82a9c6934dab9d8, type: 2}
  - componentType:
      reference: Microsoft.MixedReality.Toolkit.XRSDK.WindowsMixedReality.WindowsMixedRealitySpatialMeshObserver,
        Microsoft.MixedReality.Toolkit.Providers.XRSDK.WindowsMixedReality
    componentName: XR SDK Windows Mixed Reality Spatial Mesh Observer
    priority: 0
    runtimePlatform: 9
    observerProfile: {fileID: 11400000, guid: dfd9a62b285393f458cb65e16c049f6e, type: 2}
